{
    "pipeline_params":
    {
        "env_name":"user",
        "pipeline_name":"yolox_mmdet",
        "zone_name":"test"
    },
    "step_params":
    {
        "step_name": "model_eval"
    },
    "substeps_params":
    [
        {
            "substep_name":"configure_eval.ipynb",
            "substep_params":
            {
            }
        },
        {
            "substep_name":"eval.ipynb",
            "substep_params":
            {                
                "min_score"      : 0.05
            }
        },
        {
            "substep_name":"compare_eval.ipynb",
            "substep_params":
            {
                "threshold_iou" : 0.5,
                "threshold_MAp05": 0.5
            }
        }
    ]
}